{
	"Fornecimentos": [{
			"numForn": "123456",
			"nfe": "123456789-1",
			"dataNfe": "12.01.2017",
			"numVols": "50",
			"items": [{
				"chave": "1"
			}, {
				"chave": "2"
			}, {
				"chave": "3"
			}]
		}, {
			"numForn": "444444",
			"nfe": "123456789-1",
			"dataNfe": "12.01.2017",
			"numVols": "50",
			"items": [{
				"chave": "1"
			}, {
				"chave": "2"
			}, {
				"chave": "3"
			}]
		}

	],
	"Teste" : {
		"chave" : "Tesstteee"	
	}
	
}